<?xml version="1.0" encoding="UTF-8" standalone="no"?>
<!-- Created with Inkscape (http://www.inkscape.org/) -->

<svg
   xmlns:dc="http://purl.org/dc/elements/1.1/"
   xmlns:cc="http://creativecommons.org/ns#"
   xmlns:rdf="http://www.w3.org/1999/02/22-rdf-syntax-ns#"
   xmlns:svg="http://www.w3.org/2000/svg"
   xmlns="http://www.w3.org/2000/svg"
   xmlns:sodipodi="http://sodipodi.sourceforge.net/DTD/sodipodi-0.dtd"
   xmlns:inkscape="http://www.inkscape.org/namespaces/inkscape"
   width="210mm"
   height="297mm"
   viewBox="0 0 210 297"
   version="1.1"
   id="svg8"
   inkscape:version="0.92.2 5c3e80d, 2017-08-06"
   sodipodi:docname="gokit.svg">
  <defs
     id="defs2">
    <inkscape:perspective
       sodipodi:type="inkscape:persp3d"
       inkscape:vp_x="-307.75451 : 976.11299 : 1"
       inkscape:vp_y="0 : 3779.5275 : 0"
       inkscape:vp_z="981.27095 : 1073.2559 : 1"
       inkscape:persp3d-origin="209.09589 : 931.88352 : 1"
       id="perspective4578" />
    <inkscape:perspective
       sodipodi:type="inkscape:persp3d"
       inkscape:vp_x="-310.43723 : 943.72953 : 1"
       inkscape:vp_y="0 : 3779.5275 : 0"
       inkscape:vp_z="978.58824 : 1040.8724 : 1"
       inkscape:persp3d-origin="206.41317 : 899.50006 : 1"
       id="perspective4562" />
    <inkscape:perspective
       sodipodi:type="inkscape:persp3d"
       inkscape:vp_x="-80.268395 : 249.04167 : 1"
       inkscape:vp_y="0 : 1000 : 0"
       inkscape:vp_z="260.78625 : 274.74405 : 1"
       inkscape:persp3d-origin="56.481604 : 237.33929 : 1"
       id="perspective3699" />
  </defs>
  <sodipodi:namedview
     id="base"
     pagecolor="#ffffff"
     bordercolor="#666666"
     borderopacity="1.0"
     inkscape:pageopacity="0.0"
     inkscape:pageshadow="2"
     inkscape:zoom="0.36"
     inkscape:cx="406.07611"
     inkscape:cy="632.49248"
     inkscape:document-units="mm"
     inkscape:current-layer="layer1"
     showgrid="false"
     gridtolerance="4"
     objecttolerance="5"
     inkscape:window-width="1280"
     inkscape:window-height="704"
     inkscape:window-x="0"
     inkscape:window-y="1"
     inkscape:window-maximized="1" />
  <metadata
     id="metadata5">
    <rdf:RDF>
      <cc:Work
         rdf:about="">
        <dc:format>image/svg+xml</dc:format>
        <dc:type
           rdf:resource="http://purl.org/dc/dcmitype/StillImage" />
        <dc:title></dc:title>
      </cc:Work>
    </rdf:RDF>
  </metadata>
  <g
     inkscape:label="Layer 1"
     inkscape:groupmode="layer"
     id="layer1">
    <g
       transform="translate(10.524848,37.736944)"
       style="fill:#ffab3f;fill-opacity:1"
       id="g4620">
      <path
         inkscape:connector-curvature="0"
         id="path4608"
         style="fill:#ffab3f;fill-opacity:1;fill-rule:evenodd;stroke:none;stroke-linejoin:round"
         d="m 44.83374,102.39005 v 7.0831 L 92.548712,90.202406 v -5.518082 z" />
      <path
         inkscape:connector-curvature="0"
         id="path4610"
         style="fill:#ffab3f;fill-opacity:1;fill-rule:evenodd;stroke:none;stroke-linejoin:round"
         d="M 44.83374,109.47315 96.926606,135.08808 143.88688,102.7517 92.548712,90.202406 Z" />
      <path
         inkscape:connector-curvature="0"
         id="path4612"
         style="fill:#ffab3f;fill-opacity:1;fill-rule:evenodd;stroke:none;stroke-linejoin:round"
         d="m 92.548712,84.684324 51.338168,10.91006 V 102.7517 L 92.548712,90.202406 Z" />
      <path
         inkscape:connector-curvature="0"
         id="path4614"
         style="fill:#ff5746;fill-opacity:1"
         d="M 44.83374,102.39005 96.926606,125.05556 143.88688,95.594384 92.548712,84.684324 Z" />
      <path
         inkscape:connector-curvature="0"
         id="path4616"
         style="fill:#ea1600;fill-opacity:1;fill-rule:evenodd;stroke:none;stroke-linejoin:round"
         d="m 96.926606,125.05556 v 10.03252 L 143.88688,102.7517 v -7.157316 z" />
      <path
         inkscape:connector-curvature="0"
         id="path4618"
         style="fill:#b51100;fill-opacity:1;fill-rule:evenodd;stroke:none;stroke-linejoin:round"
         d="m 44.83374,102.39005 52.092866,22.66551 v 10.03252 L 44.83374,109.47315 Z" />
    </g>
    <path
       sodipodi:nodetypes="ccccc"
       inkscape:connector-curvature="0"
       id="path4628"
       d="m 64.802452,136.5519 42.957298,18.98386 37.77461,-24.37134 -42.4608,-8.74315 c -11.231296,4.24631 -13.132303,4.92611 -38.271108,14.13063 z"
       style="fill:#000000;fill-opacity:0.31372549;stroke:none;stroke-width:0.26458332px;stroke-linecap:butt;stroke-linejoin:miter;stroke-opacity:1" />
    <g
       transform="translate(8.891534,8.0145564)"
       style="fill:#ffab3f;fill-opacity:1"
       id="g4606">
      <path
         inkscape:connector-curvature="0"
         id="path4594"
         style="fill:#ffab3f;fill-opacity:1;fill-rule:evenodd;stroke:none;stroke-linejoin:round"
         d="m 44.83374,102.39005 v 7.0831 L 92.548712,90.202406 v -5.518082 z" />
      <path
         inkscape:connector-curvature="0"
         id="path4596"
         style="fill:#ffab3f;fill-opacity:1;fill-rule:evenodd;stroke:none;stroke-linejoin:round"
         d="M 44.83374,109.47315 96.926606,135.08808 143.88688,102.7517 92.548712,90.202406 Z" />
      <path
         inkscape:connector-curvature="0"
         id="path4598"
         style="fill:#ffab3f;fill-opacity:1;fill-rule:evenodd;stroke:none;stroke-linejoin:round"
         d="m 92.548712,84.684324 51.338168,10.91006 V 102.7517 L 92.548712,90.202406 Z" />
      <path
         inkscape:connector-curvature="0"
         id="path4600"
         style="fill:#46c1dc;fill-opacity:1"
         d="M 44.83374,102.39005 96.926606,125.05556 143.88688,95.594384 92.548712,84.684324 Z" />
      <path
         inkscape:connector-curvature="0"
         id="path4602"
         style="fill:#148ebb;fill-opacity:1;fill-rule:evenodd;stroke:none;stroke-linejoin:round"
         d="m 96.926606,125.05556 v 10.03252 L 143.88688,102.7517 v -7.157316 z" />
      <path
         inkscape:connector-curvature="0"
         id="path4604"
         style="fill:#0f6b8c;fill-opacity:1;fill-rule:evenodd;stroke:none;stroke-linejoin:round"
         d="m 44.83374,102.39005 52.092866,22.66551 v 10.03252 L 44.83374,109.47315 Z" />
    </g>
    <path
       style="fill:#000000;fill-opacity:0.31372549;stroke:none;stroke-width:0.26458332px;stroke-linecap:butt;stroke-linejoin:miter;stroke-opacity:1"
       d="m 62.490724,107.16871 41.261256,18.39618 40.14907,-24.12287 -42.4608,-8.743146 C 90.208954,96.945186 87.629529,97.964196 62.490724,107.16871 Z"
       id="path4624"
       inkscape:connector-curvature="0"
       sodipodi:nodetypes="ccccc" />
    <g
       id="g4534"
       style="fill:#ffab3f;fill-opacity:1"
       transform="translate(3.4960118,-20.393619)">
      <path
         d="m 44.83374,102.39005 v 7.0831 L 92.548712,90.202406 v -5.518082 z"
         style="fill:#ffab3f;fill-opacity:1;fill-rule:evenodd;stroke:none;stroke-linejoin:round"
         id="path4580"
         inkscape:connector-curvature="0" />
      <path
         d="M 44.83374,109.47315 96.926606,135.08808 143.88688,102.7517 92.548712,90.202406 Z"
         style="fill:#ffab3f;fill-opacity:1;fill-rule:evenodd;stroke:none;stroke-linejoin:round"
         id="path4582"
         inkscape:connector-curvature="0" />
      <path
         d="m 92.548712,84.684324 51.338168,10.91006 V 102.7517 L 92.548712,90.202406 Z"
         style="fill:#ffab3f;fill-opacity:1;fill-rule:evenodd;stroke:none;stroke-linejoin:round"
         id="path4584"
         inkscape:connector-curvature="0" />
      <path
         d="M 44.83374,102.39005 96.926606,125.05556 143.88688,95.594384 92.548712,84.684324 Z"
         style="fill:#ffab3f;fill-opacity:1"
         id="path4586"
         inkscape:connector-curvature="0" />
      <path
         d="m 96.926606,125.05556 v 10.03252 L 143.88688,102.7517 v -7.157316 z"
         style="fill:#ff873f;fill-opacity:1;fill-rule:evenodd;stroke:none;stroke-linejoin:round"
         id="path4588"
         inkscape:connector-curvature="0" />
      <path
         d="m 44.83374,102.39005 52.092866,22.66551 v 10.03252 L 44.83374,109.47315 Z"
         style="fill:#cc611e;fill-opacity:1;fill-rule:evenodd;stroke:none;stroke-linejoin:round"
         id="path4590"
         inkscape:connector-curvature="0" />
    </g>
    <g
       inkscape:corner7="-0.22825136 : -0.055539886 : 0.31002332 : 1"
       inkscape:corner0="0.093106843 : -0.047797299 : 0 : 1"
       inkscape:perspectiveID="#perspective4562"
       style="fill:#ffab3f;fill-opacity:1"
       id="g4560"
       sodipodi:type="inkscape:box3d">
      <path
         points="162.38975,-414.23257 342.7298,-487.06689 342.7298,-507.92263 162.38975,-441.00335 "
         d="m 162.38975,-441.00335 v 26.77078 l 180.34005,-72.83432 v -20.85574 z"
         inkscape:box3dsidetype="6"
         style="fill:#ffab3f;fill-opacity:1;fill-rule:evenodd;stroke:none;stroke-linejoin:round"
         id="path4548"
         sodipodi:type="inkscape:box3dside" />
      <path
         points="359.27617,-317.42022 536.76385,-439.63647 342.7298,-487.06689 162.38975,-414.23257 "
         d="m 162.38975,-414.23257 196.88642,96.81235 177.48768,-122.21625 -194.03405,-47.43042 z"
         inkscape:box3dsidetype="13"
         style="fill:#ffab3f;fill-opacity:1;fill-rule:evenodd;stroke:none;stroke-linejoin:round"
         id="path4550"
         sodipodi:type="inkscape:box3dside" />
      <path
         points="536.76385,-466.68775 536.76385,-439.63647 342.7298,-487.06689 342.7298,-507.92263 "
         d="m 342.7298,-507.92263 194.03405,41.23488 v 27.05128 L 342.7298,-487.06689 Z"
         inkscape:box3dsidetype="11"
         style="fill:#ffab3f;fill-opacity:1;fill-rule:evenodd;stroke:none;stroke-linejoin:round"
         id="path4552"
         sodipodi:type="inkscape:box3dside" />
      <path
         points="359.27617,-355.33842 536.76385,-466.68775 342.7298,-507.92263 162.38975,-441.00335 "
         d="m 162.38975,-441.00335 196.88642,85.66493 177.48768,-111.34933 -194.03405,-41.23488 z"
         inkscape:box3dsidetype="5"
         style="fill:#ffab3f;fill-opacity:1"
         id="path4554"
         sodipodi:type="inkscape:box3dside" />
      <path
         points="359.27617,-317.42022 536.76385,-439.63647 536.76385,-466.68775 359.27617,-355.33842 "
         d="m 359.27617,-355.33842 v 37.9182 l 177.48768,-122.21625 v -27.05128 z"
         inkscape:box3dsidetype="14"
         style="fill:#ff873f;fill-opacity:1;fill-rule:evenodd;stroke:none;stroke-linejoin:round"
         id="path4556"
         sodipodi:type="inkscape:box3dside" />
      <path
         points="359.27617,-355.33842 359.27617,-317.42022 162.38975,-414.23257 162.38975,-441.00335 "
         d="m 162.38975,-441.00335 196.88642,85.66493 v 37.9182 l -196.88642,-96.81235 z"
         inkscape:box3dsidetype="3"
         style="fill:#ff873f;fill-opacity:1;fill-rule:evenodd;stroke:none;stroke-linejoin:round"
         id="path4558"
         sodipodi:type="inkscape:box3dside" />
    </g>
    <g
       inkscape:corner7="-0.22825136 : -0.055539886 : 0.31002332 : 1"
       inkscape:corner0="0.093106843 : -0.047797299 : 0 : 1"
       inkscape:perspectiveID="#perspective4578"
       style="fill:#ffab3f;fill-opacity:1"
       id="g4576"
       sodipodi:type="inkscape:box3d">
      <path
         points="165.07247,-446.61603 345.41252,-519.45035 345.41252,-540.30609 165.07247,-473.38681 "
         d="m 165.07247,-473.38681 v 26.77078 l 180.34005,-72.83432 v -20.85574 z"
         inkscape:box3dsidetype="6"
         style="fill:#ffab3f;fill-opacity:1;fill-rule:evenodd;stroke:none;stroke-linejoin:round"
         id="path4564"
         sodipodi:type="inkscape:box3dside" />
      <path
         points="361.95889,-349.80368 539.44656,-472.01994 345.41252,-519.45035 165.07247,-446.61603 "
         d="m 165.07247,-446.61603 196.88642,96.81235 177.48767,-122.21626 -194.03404,-47.43041 z"
         inkscape:box3dsidetype="13"
         style="fill:#ffab3f;fill-opacity:1;fill-rule:evenodd;stroke:none;stroke-linejoin:round"
         id="path4566"
         sodipodi:type="inkscape:box3dside" />
      <path
         points="539.44656,-499.07123 539.44656,-472.01994 345.41252,-519.45035 345.41252,-540.30609 "
         d="m 345.41252,-540.30609 194.03404,41.23486 v 27.05129 l -194.03404,-47.43041 z"
         inkscape:box3dsidetype="11"
         style="fill:#ffab3f;fill-opacity:1;fill-rule:evenodd;stroke:none;stroke-linejoin:round"
         id="path4568"
         sodipodi:type="inkscape:box3dside" />
      <path
         points="361.95889,-387.72188 539.44656,-499.07123 345.41252,-540.30609 165.07247,-473.38681 "
         d="m 165.07247,-473.38681 196.88642,85.66493 177.48767,-111.34935 -194.03404,-41.23486 z"
         inkscape:box3dsidetype="5"
         style="fill:#ffab3f;fill-opacity:1"
         id="path4570"
         sodipodi:type="inkscape:box3dside" />
      <path
         points="361.95889,-349.80368 539.44656,-472.01994 539.44656,-499.07123 361.95889,-387.72188 "
         d="m 361.95889,-387.72188 v 37.9182 l 177.48767,-122.21626 v -27.05129 z"
         inkscape:box3dsidetype="14"
         style="fill:#ff873f;fill-opacity:1;fill-rule:evenodd;stroke:none;stroke-linejoin:round"
         id="path4572"
         sodipodi:type="inkscape:box3dside" />
      <path
         points="361.95889,-387.72188 361.95889,-349.80368 165.07247,-446.61603 165.07247,-473.38681 "
         d="m 165.07247,-473.38681 196.88642,85.66493 v 37.9182 l -196.88642,-96.81235 z"
         inkscape:box3dsidetype="3"
         style="fill:#ff873f;fill-opacity:1;fill-rule:evenodd;stroke:none;stroke-linejoin:round"
         id="path4574"
         sodipodi:type="inkscape:box3dside" />
    </g>
  </g>
</svg>
